{
  "count": 222,
  "next": "https://quixotic-opt-mainnet.herokuapp.com/api/collection/stats/?limit=30&offset=30&range=all&sort=volume%3Adesc",
  "previous": null,
  "results": [
    {
      "id": 1,
      "address": "0xB8Df6Cc3050cC02F967Db1eE48330bA23276A492",
      "name": "OptiPunks",
      "supply": 10000,
      "owners": 2921,
      "floor": 61000000,
      "listed": 463,
      "sales": 4062,
      "volume": 480467389540,
      "verified": true,
      "slug": "optipunks",
      "volume_change_24h": 2.626865671641791,
      "volume_change_7d": 0.32862888210322483,
      "image_url": "https://fanbase-1.s3.amazonaws.com/quixotic-collection-profile/optipunkgif.b34a680b_vBX64As.gif",
      "eth_to_usd": 1550.62
    },
    {
      "id": 1264,
      "address": "0x51E5426eDE4e2d4c2586371372313B5782387222",
      "name": "Apetimism",
      "supply": 3999,
      "owners": 1601,
      "floor": 80000000,
      "listed": 390,
      "sales": 1923,
      "volume": 184781261838,
      "verified": true,
      "slug": "apetimism",
      "volume_change_24h": -0.7842767295597485,
      "volume_change_7d": -0.20056748636919997,
      "image_url": "https://fanbase-1.s3.amazonaws.com/quixotic-collection-profile/looprotated-360.72b010f9.gif",
      "eth_to_usd": 1550.62
    },
    {
      "id": 22,
      "address": "0xDbfEaAe58B6dA8901a8a40ba0712bEB2EE18368E",
      "name": "Dope Wars Hustlers",
      "supply": 27385,
      "owners": 3718,
      "floor": 196923,
      "listed": 4242,
      "sales": 4990,
      "volume": 90942346451,
      "verified": true,
      "slug": "hustlers",
      "volume_change_24h": 3.338767231914115,
      "volume_change_7d": -0.48123991092070567,
      "image_url": "https://fanbase-1.s3.amazonaws.com/quixotic-collection-profile/ezgif.com-gif-maker.gif",
      "eth_to_usd": 1550.62
    },
    {
      "id": 84,
      "address": "0x4d40396b4Eb19Be0C1cE1B9544608068bDF6b0fC",
      "name": "Optimistic Apes",
      "supply": 2300,
      "owners": 1275,
      "floor": 18000000,
      "listed": 118,
      "sales": 1243,
      "volume": 59125851284,
      "verified": true,
      "slug": "optimistic-apes",
      "volume_change_24h": 1.3793103448275863,
      "volume_change_7d": 1.5379161112077127,
      "image_url": "https://fanbase-1.s3.amazonaws.com/quixotic-collection-profile/pfpsmaller_8ETydZ3.gif",
      "eth_to_usd": 1550.62
    },
    {
      "id": 413,
      "address": "0x70706edeEa0BB9fB8A9214764066B79441528704",
      "name": "Elements of Ganland",
      "supply": 555,
      "owners": 379,
      "floor": 15000000,
      "listed": 111,
      "sales": 513,
      "volume": 55474912855,
      "verified": true,
      "slug": "elementsofganland",
      "volume_change_24h": null,
      "volume_change_7d": -0.07722007722007722,
      "image_url": "https://fanbase-1.s3.amazonaws.com/quixotic-collection-profile/0_hfMszWU.png",
      "eth_to_usd": 1550.62
    },
    {
      "id": 398,
      "address": "0x8887aeaE3b19c38705ECb1c63AefDd1964beeb6b",
      "name": "Ganland",
      "supply": 222,
      "owners": 161,
      "floor": 42300000,
      "listed": 37,
      "sales": 155,
      "volume": 43964487890,
      "verified": true,
      "slug": "ganland",
      "volume_change_24h": null,
      "volume_change_7d": -1.0,
      "image_url": "https://fanbase-1.s3.amazonaws.com/quixotic-collection-profile/0_XNj1i4e.png",
      "eth_to_usd": 1550.62
    },
    {
      "id": 3414,
      "address": "0x5c9D55b78FEBCC2061715BA4f57EcF8EA2711F2c",
      "name": "motorheadz",
      "supply": 4321,
      "owners": 1954,
      "floor": 15500000,
      "listed": 663,
      "sales": 3540,
      "volume": 40876890813,
      "verified": true,
      "slug": "motorheadz",
      "volume_change_24h": -0.17011337868480725,
      "volume_change_7d": -0.7850389241767681,
      "image_url": "https://fanbase-1.s3.amazonaws.com/quixotic-collection-profile/motorhead_uDSVrVi.webp",
      "eth_to_usd": 1550.62
    },
    {
      "id": 445,
      "address": "0x18a1bC18cEfdc952121F319039502FDD5f48B6fF",
      "name": "CryptoTesters",
      "supply": 1266,
      "owners": 786,
      "floor": 187000000,
      "listed": 58,
      "sales": 126,
      "volume": 34908250000,
      "verified": true,
      "slug": "cryptotesters",
      "volume_change_24h": null,
      "volume_change_7d": -0.7459349593495935,
      "image_url": "https://fanbase-1.s3.amazonaws.com/quixotic-collection-profile/nft-small.gif",
      "eth_to_usd": 1550.62
    },
    {
      "id": 1825,
      "address": "0x8E56343adAFA62DaC9C9A8ac8c742851B0fb8b03",
      "name": "Bored Town",
      "supply": 5555,
      "owners": 3931,
      "floor": 9000000,
      "listed": 267,
      "sales": 2029,
      "volume": 29129514623,
      "verified": true,
      "slug": "boredtown",
      "volume_change_24h": -0.1295016396887218,
      "volume_change_7d": -0.5053328821020489,
      "image_url": "https://fanbase-1.s3.amazonaws.com/quixotic-collection-profile/vllo.GIF",
      "eth_to_usd": 1550.62
    },
    {
      "id": 321,
      "address": "0xA95579592078783B409803Ddc75Bb402C217A924",
      "name": "Optimism Collective: Hello World",
      "supply": 524120,
      "owners": 17406,
      "floor": 430000,
      "listed": 11541,
      "sales": 30482,
      "volume": 28596595922,
      "verified": true,
      "slug": null,
      "volume_change_24h": 0.5011852273824012,
      "volume_change_7d": 0.11936510703052189,
      "image_url": "https://fanbase-1.s3.amazonaws.com/collection_image/0xA95579592078783B409803Ddc75Bb402C217A924/1650993320/bafybeieosskelr67ibcetu46kxqhxhztfh4cvgauboakve2h73kgeorpwq",
      "eth_to_usd": 1550.62
    },
    {
      "id": 2,
      "address": "0x52782699900DF91B58eCD618e77847C5774dCD2e",
      "name": "Optimistic Bunnies",
      "supply": 3762,
      "owners": 2301,
      "floor": 24000000,
      "listed": 110,
      "sales": 789,
      "volume": 24480938956,
      "verified": true,
      "slug": "opbunnies",
      "volume_change_24h": -1.0,
      "volume_change_7d": -0.39991687713801594,
      "image_url": "https://fanbase-1.s3.amazonaws.com/quixotic-collection-profile/OB.gif",
      "eth_to_usd": 1550.62
    },
    {
      "id": 14,
      "address": "0xc58c9a631ce193fC3F2Bb190Ab5Ba1BE181c09D1",
      "name": "Octavas",
      "supply": 981,
      "owners": 479,
      "floor": 34500000,
      "listed": 39,
      "sales": 232,
      "volume": 22316029000,
      "verified": true,
      "slug": "octavas",
      "volume_change_24h": null,
      "volume_change_7d": null,
      "image_url": "https://fanbase-1.s3.amazonaws.com/quixotic-collection-profile/art.png",
      "eth_to_usd": 1550.62
    },
    {
      "id": 540,
      "address": "0xC513f6c92A1B4726DA5B24cb786FE2B8bD6464f3",
      "name": "Introducing Writing NFTs",
      "supply": 420,
      "owners": 382,
      "floor": 103000000,
      "listed": 11,
      "sales": 163,
      "volume": 18720236437,
      "verified": true,
      "slug": null,
      "volume_change_24h": null,
      "volume_change_7d": -0.49044585987261147,
      "image_url": "https://fanbase-1.s3.amazonaws.com/collection_image/0xC513f6c92A1B4726DA5B24cb786FE2B8bD6464f3/1653502503/bafkreihltgjsh7dsncek4tbrtuaqux3cp6x3fhosquu6ipgdjilobf4ydu",
      "eth_to_usd": 1550.62
    },
    {
      "id": 3636,
      "address": "0x9B9F542456ad12796cCB8EB6644f29E3314e68e1",
      "name": "OptiChads 🔴✨💪",
      "supply": 10000,
      "owners": 1645,
      "floor": 2900000,
      "listed": 1628,
      "sales": 3822,
      "volume": 15854764573,
      "verified": true,
      "slug": "optichads",
      "volume_change_24h": 0.04975085739906113,
      "volume_change_7d": -0.3054845429174926,
      "image_url": "https://fanbase-1.s3.amazonaws.com/quixotic-collection-profile/promo_bGG7ZAH.gif",
      "eth_to_usd": 1550.62
    },
    {
      "id": 372,
      "address": "0xF25CBa0AE45496E71117442378F820b2cf09e9f1",
      "name": "Usagiduck",
      "supply": 8800,
      "owners": 2314,
      "floor": 4900000,
      "listed": 412,
      "sales": 751,
      "volume": 13475305104,
      "verified": true,
      "slug": "usagiduck",
      "volume_change_24h": null,
      "volume_change_7d": -0.0425531914893617,
      "image_url": "https://fanbase-1.s3.amazonaws.com/quixotic-collection-profile/defaultusagiduck-150.png",
      "eth_to_usd": 1550.62
    },
    {
      "id": 21,
      "address": "0x0E55e1913C50e015e0F60386ff56A4Bfb00D7110",
      "name": "Dope Wars Gear",
      "supply": 3221,
      "owners": 338,
      "floor": 10000000,
      "listed": 290,
      "sales": 256,
      "volume": 13465689000,
      "verified": true,
      "slug": "gear",
      "volume_change_24h": null,
      "volume_change_7d": -0.8076923076923077,
      "image_url": "https://fanbase-1.s3.amazonaws.com/quixotic-collection-profile/dope-wars-gear.gif",
      "eth_to_usd": 1550.62
    },
    {
      "id": 923,
      "address": "0x907Bc276F2E855865887422353221C86a575fD1e",
      "name": "Cryptovania",
      "supply": 1789,
      "owners": 589,
      "floor": 5000000,
      "listed": 175,
      "sales": 370,
      "volume": 11533639867,
      "verified": true,
      "slug": "cryptovania",
      "volume_change_24h": null,
      "volume_change_7d": -1.0,
      "image_url": "https://fanbase-1.s3.amazonaws.com/quixotic-collection-profile/cryptovania.jpg",
      "eth_to_usd": 1550.62
    },
    {
      "id": 2689,
      "address": "0x69a68eb548A37ee475D9f89646945588558796D1",
      "name": "Oliens",
      "supply": 2222,
      "owners": 1202,
      "floor": 3700000,
      "listed": 615,
      "sales": 1333,
      "volume": 11159001000,
      "verified": true,
      "slug": "oliensnft",
      "volume_change_24h": -0.5324675324675324,
      "volume_change_7d": -0.759503322078205,
      "image_url": "https://fanbase-1.s3.amazonaws.com/quixotic-collection-profile/nft-motio-013.gif",
      "eth_to_usd": 1550.62
    },
    {
      "id": 4,
      "address": "0x5763F564E0B5D8233Da0aCcf2585f2dbeF0f0dfa",
      "name": "OldEnglish",
      "supply": 420,
      "owners": 202,
      "floor": 196000000,
      "listed": 9,
      "sales": 65,
      "volume": 11134800000,
      "verified": true,
      "slug": null,
      "volume_change_24h": null,
      "volume_change_7d": null,
      "image_url": "https://fanbase-1.s3.amazonaws.com/quixotic-collection-profile/Frame_1.png",
      "eth_to_usd": 1550.62
    },
    {
      "id": 989,
      "address": "0x9c7305eb78a432ced5C4D14Cac27E8Ed569A2e26",
      "name": "Velodrome",
      "supply": 8704,
      "owners": 5974,
      "floor": 109900,
      "listed": 377,
      "sales": 930,
      "volume": 10690429930,
      "verified": true,
      "slug": "velodrome",
      "volume_change_24h": -0.4702847179204809,
      "volume_change_7d": -0.8336199383707148,
      "image_url": "https://fanbase-1.s3.amazonaws.com/quixotic-collection-profile/mlOr3ScH_400x400.jpeg",
      "eth_to_usd": 1550.62
    },
    {
      "id": 3494,
      "address": "0x76c9fb6ae4151e00bbdbf9B771CF84DE42a31636",
      "name": "Oppa Bear Pixel",
      "supply": 1000,
      "owners": 243,
      "floor": 27000000,
      "listed": 55,
      "sales": 370,
      "volume": 10580149999,
      "verified": true,
      "slug": "oppabearpixel",
      "volume_change_24h": null,
      "volume_change_7d": -0.766074987836841,
      "image_url": "https://fanbase-1.s3.amazonaws.com/quixotic-collection-profile/profile_MuHtSRm.gif",
      "eth_to_usd": 1550.62
    },
    {
      "id": 169,
      "address": "0x43b91b168D210F722f2896d258c2c236B9CeBB7b",
      "name": "OptiNouns",
      "supply": 5000,
      "owners": 1153,
      "floor": 4000000,
      "listed": 420,
      "sales": 3191,
      "volume": 7217603980,
      "verified": false,
      "slug": "OptiNouns",
      "volume_change_24h": -1.0,
      "volume_change_7d": -0.8436799282465245,
      "image_url": "https://fanbase-1.s3.amazonaws.com/quixotic-collection-profile/NounsGlasses.jpg",
      "eth_to_usd": 1550.62
    },
    {
      "id": 2130,
      "address": "0xbb1b0DA320CCC7a677A2FE00871F422e2E505fb1",
      "name": "Global Gans",
      "supply": 222,
      "owners": 164,
      "floor": 10000000,
      "listed": 73,
      "sales": 114,
      "volume": 5560059230,
      "verified": true,
      "slug": "globalgans",
      "volume_change_24h": -1.0,
      "volume_change_7d": null,
      "image_url": "https://fanbase-1.s3.amazonaws.com/quixotic-collection-profile/0_uIM47rm.png",
      "eth_to_usd": 1550.62
    },
    {
      "id": 81,
      "address": "0xD5f027a493848C925fD6984459F72142B42EbBBD",
      "name": "Connectivity",
      "supply": 450,
      "owners": 249,
      "floor": 34500000,
      "listed": 29,
      "sales": 87,
      "volume": 5552800000,
      "verified": true,
      "slug": "",
      "volume_change_24h": null,
      "volume_change_7d": null,
      "image_url": "https://fanbase-1.s3.amazonaws.com/quixotic-collection-profile/Screen_Shot_2022-03-03_at_9.05.59_PM_BbkabHe.png",
      "eth_to_usd": 1550.62
    },
    {
      "id": 419,
      "address": "0x3A1e4CCA3d617E76ed0Fc77972852230B595445b",
      "name": "GeneX Project",
      "supply": 514,
      "owners": 303,
      "floor": 3400000,
      "listed": 94,
      "sales": 409,
      "volume": 5467989249,
      "verified": true,
      "slug": "genexproject",
      "volume_change_24h": null,
      "volume_change_7d": -0.568,
      "image_url": "https://fanbase-1.s3.amazonaws.com/quixotic-collection-profile/icon.png",
      "eth_to_usd": 1550.62
    },
    {
      "id": 33,
      "address": "0x5BDb639399A91890356C98Aa2De402073dc642c3",
      "name": "PegaPals",
      "supply": 113,
      "owners": 56,
      "floor": 1690000000,
      "listed": 13,
      "sales": 7,
      "volume": 5110000000,
      "verified": true,
      "slug": "pegapal",
      "volume_change_24h": null,
      "volume_change_7d": null,
      "image_url": "https://fanbase-1.s3.amazonaws.com/quixotic-collection-profile/pegapal.gif",
      "eth_to_usd": 1550.62
    },
    {
      "id": 26,
      "address": "0xa698713a3bc386970Cdc95A720B5754cC0f96931",
      "name": "Words  (viaMirror)",
      "supply": 38809,
      "owners": 1960,
      "floor": 144000,
      "listed": 222,
      "sales": 1960,
      "volume": 4906807954,
      "verified": true,
      "slug": "words",
      "volume_change_24h": null,
      "volume_change_7d": -0.628976922364571,
      "image_url": "https://fanbase-1.s3.amazonaws.com/quixotic-collection-profile/VVWXmSVk_400x400.jpeg",
      "eth_to_usd": 1550.62
    },
    {
      "id": 1875,
      "address": "0xA7fb15d282B80d60e007eB7Fed2bEd9B9dcD1081",
      "name": "OptiMonkeysGang",
      "supply": 3333,
      "owners": 478,
      "floor": 2200000,
      "listed": 151,
      "sales": 309,
      "volume": 4346669050,
      "verified": false,
      "slug": null,
      "volume_change_24h": -1.0,
      "volume_change_7d": -0.31305201177625125,
      "image_url": "https://fanbase-1.s3.amazonaws.com/quixotic-collection-profile/gif_eGosYvt.gif",
      "eth_to_usd": 1550.62
    },
    {
      "id": 2359,
      "address": "0x824BB1f0438A38Ea424e19171eF6665A4bCCe3A5",
      "name": "NerdApeDAONFT",
      "supply": 1402,
      "owners": 467,
      "floor": 10000000,
      "listed": 210,
      "sales": 255,
      "volume": 4245260000,
      "verified": false,
      "slug": "nerdapedao",
      "volume_change_24h": -1.0,
      "volume_change_7d": -0.02666666666666667,
      "image_url": "https://fanbase-1.s3.amazonaws.com/quixotic-collection-profile/Logo_02.png",
      "eth_to_usd": 1550.62
    },
    {
      "id": 3,
      "address": "0x006eB613cc586198003a119485594ECbbDf41230",
      "name": "Optimistic Loogies",
      "supply": 1511,
      "owners": 621,
      "floor": 12500000,
      "listed": 40,
      "sales": 240,
      "volume": 4141659990,
      "verified": true,
      "slug": null,
      "volume_change_24h": null,
      "volume_change_7d": null,
      "image_url": "https://fanbase-1.s3.amazonaws.com/quixotic-collection-profile/d01b15f474ebabb1a1943adb9ef76118_1_1.png",
      "eth_to_usd": 1550.62
    }
  ]
}
