{
  "count": 191,
  "next": "https://quixotic-arb-mainnet.herokuapp.com/api/collection/stats/?limit=20&offset=20&range=all&sort=volume%3Adesc",
  "previous": null,
  "results": [
    {
      "id": 371,
      "address": "0x642FfAb2752Df3BCE97083709F36080fb1482c80",
      "name": "Government Toucans",
      "supply": 47021,
      "owners": 32059,
      "floor": 14000000,
      "listed": 751,
      "sales": 18698,
      "volume": 197404558529,
      "verified": true,
      "slug": "government-toucans",
      "volume_change_24h": 1.7305344228421151,
      "volume_change_7d": -0.8136084875927111,
      "image_url": "https://fanbase-1.s3.amazonaws.com/quixotic-collection-profile/Signed_Toucan.png",
      "eth_to_usd": 1286.65
    },
    {
      "id": 903,
      "address": "0xfAe39eC09730CA0F14262A636D2d7C5539353752",
      "name": "Arbitrum Odyssey NFT",
      "supply": 359611,
      "owners": 336723,
      "floor": 3593000,
      "listed": 4907,
      "sales": 28899,
      "volume": 93666006863,
      "verified": true,
      "slug": "arbitrum-odyssey",
      "volume_change_24h": 0.9038177054585592,
      "volume_change_7d": 0.9040190479835464,
      "image_url": "https://fanbase-1.s3.amazonaws.com/quixotic-collection-profile/046qIxwT_400x400.jpeg",
      "eth_to_usd": 1286.65
    },
    {
      "id": 19,
      "address": "0x4772fB92e6606c87f7cDDcCDB880f7677768815c",
      "name": "ArbiPunks",
      "supply": 10001,
      "owners": 2208,
      "floor": 23200000,
      "listed": 106,
      "sales": 519,
      "volume": 37967116000,
      "verified": false,
      "slug": null,
      "volume_change_24h": null,
      "volume_change_7d": 0.4576877234803337,
      "image_url": "https://fanbase-1.s3.amazonaws.com/quixotic-collection-profile/H8pkEezf_400x400.jpeg",
      "eth_to_usd": 1286.65
    },
    {
      "id": 8,
      "address": "0x17f4BAa9D35Ee54fFbCb2608e20786473c7aa49f",
      "name": "GMX Blueberry Club",
      "supply": 10000,
      "owners": 3660,
      "floor": 455000000,
      "listed": 15,
      "sales": 33,
      "volume": 12049438000,
      "verified": true,
      "slug": "blueberryclub",
      "volume_change_24h": null,
      "volume_change_7d": 0.4601226993865031,
      "image_url": "https://fanbase-1.s3.amazonaws.com/quixotic-collection-profile/7U23Z_z7_400x400.jpeg",
      "eth_to_usd": 1286.65
    },
    {
      "id": 830,
      "address": "0xF4f935F4272e6FD9C779cF0036589A63b48d77A7",
      "name": "Blueberry Lab Items",
      "supply": 11,
      "owners": 620,
      "floor": 66000000,
      "listed": 8,
      "sales": 119,
      "volume": 10751222776,
      "verified": true,
      "slug": "blueberrylab",
      "volume_change_24h": null,
      "volume_change_7d": 0.84125,
      "image_url": "https://fanbase-1.s3.amazonaws.com/quixotic-collection-profile/9ILhbRPv.jpg",
      "eth_to_usd": 1286.65
    },
    {
      "id": 467,
      "address": "0x45d86E0dB60c4AEE3dFea312d8F4b5eE87E4886a",
      "name": "City Clash Towers",
      "supply": 1720,
      "owners": 710,
      "floor": 9700000,
      "listed": 10,
      "sales": 529,
      "volume": 8070785800,
      "verified": true,
      "slug": null,
      "volume_change_24h": null,
      "volume_change_7d": -1.0,
      "image_url": "https://fanbase-1.s3.amazonaws.com/quixotic-collection-profile/CityClash_PFP_FE4ct5N.png",
      "eth_to_usd": 1286.65
    },
    {
      "id": 433,
      "address": "0x3F3A8AA8a6A01b7Bf20B1d8A5BbcB310B96Ee503",
      "name": "Hashflow",
      "supply": 353,
      "owners": 335,
      "floor": 139000000,
      "listed": 7,
      "sales": 18,
      "volume": 6810000000,
      "verified": true,
      "slug": "hashflow",
      "volume_change_24h": null,
      "volume_change_7d": null,
      "image_url": "https://fanbase-1.s3.amazonaws.com/quixotic-collection-profile/D0xO8__i.jpg_small.png",
      "eth_to_usd": 1286.65
    },
    {
      "id": 12,
      "address": "0x1ac7A2fC7f66fA4edf2713A88CD4Bad24220c86C",
      "name": "ArbiDudes",
      "supply": 7085,
      "owners": 4114,
      "floor": 10200000,
      "listed": 167,
      "sales": 658,
      "volume": 6415047500,
      "verified": true,
      "slug": "arbidudes",
      "volume_change_24h": -1.0,
      "volume_change_7d": -0.09951219512195122,
      "image_url": "https://fanbase-1.s3.amazonaws.com/quixotic-collection-profile/4i8woP6E_400x400.jpeg",
      "eth_to_usd": 1286.65
    },
    {
      "id": 1532,
      "address": "0x7cfCbbD2AFDA3c656C909AA6bA9E372A1d2bA9A4",
      "name": "Art of Shell",
      "supply": 13,
      "owners": 11,
      "floor": 1000000000,
      "listed": 4,
      "sales": 14,
      "volume": 5354000000,
      "verified": true,
      "slug": "art-of-shell",
      "volume_change_24h": null,
      "volume_change_7d": null,
      "image_url": "https://fanbase-1.s3.amazonaws.com/quixotic-collection-profile/7C4FECCB-43AD-4D22-88F6-B334F9A6565F.jpeg",
      "eth_to_usd": 1286.65
    },
    {
      "id": 21,
      "address": "0xede855ceD3e5A59Aaa267aBdDdB0dB21CCFE5072",
      "name": "Diamond Pepes",
      "supply": 1093,
      "owners": 447,
      "floor": null,
      "listed": 0,
      "sales": 5,
      "volume": 4790000000,
      "verified": true,
      "slug": "diamond-pepes",
      "volume_change_24h": null,
      "volume_change_7d": null,
      "image_url": "https://fanbase-1.s3.amazonaws.com/quixotic-collection-profile/fl6iavdxoaa9a8d.png",
      "eth_to_usd": 1286.65
    },
    {
      "id": 595,
      "address": "0x84D7c3e61d1Fb8A8379480201C71865CBaBe60a6",
      "name": "Lufroloc Dishes",
      "supply": 1001,
      "owners": 669,
      "floor": 8000000,
      "listed": 33,
      "sales": 498,
      "volume": 4194011400,
      "verified": true,
      "slug": "dish",
      "volume_change_24h": null,
      "volume_change_7d": -0.4562647754137116,
      "image_url": "https://fanbase-1.s3.amazonaws.com/quixotic-collection-profile/9.jpg",
      "eth_to_usd": 1286.65
    },
    {
      "id": 556,
      "address": "0x522810e92BFB808FEF392650fEEb2Cc33cE52815",
      "name": "Volmex NFT",
      "supply": 7330,
      "owners": 7282,
      "floor": 5000000,
      "listed": 40,
      "sales": 308,
      "volume": 3043423388,
      "verified": true,
      "slug": "volmex",
      "volume_change_24h": -1.0,
      "volume_change_7d": -0.7467700258397932,
      "image_url": "https://fanbase-1.s3.amazonaws.com/quixotic-collection-profile/fykbmljct7uurpljsc2d.webp",
      "eth_to_usd": 1286.65
    },
    {
      "id": 1066,
      "address": "0xb3963985dE1B174462ddE56418ce7D419caA4c12",
      "name": "Aboard Exchange Space Puzzle",
      "supply": 70854,
      "owners": 19061,
      "floor": 980000,
      "listed": 493,
      "sales": 1735,
      "volume": 2794470140,
      "verified": true,
      "slug": null,
      "volume_change_24h": -0.08143745937412944,
      "volume_change_7d": 0.07049831165232587,
      "image_url": "https://fanbase-1.s3.amazonaws.com/nft_image/0xb3963985dE1B174462ddE56418ce7D419caA4c12/5/1662290947/image.png",
      "eth_to_usd": 1286.65
    },
    {
      "id": 1710,
      "address": "0x2a4730B0Bd1Bb9E06F365C15403Fa264119d9a51",
      "name": "Robonaut",
      "supply": 10000,
      "owners": 4060,
      "floor": 1479900,
      "listed": 560,
      "sales": 2458,
      "volume": 2401965138,
      "verified": false,
      "slug": "robonaut",
      "volume_change_24h": 2.857065637065637,
      "volume_change_7d": 0.4942530415325506,
      "image_url": "https://fanbase-1.s3.amazonaws.com/quixotic-collection-profile/vllo_QU9dCd0.GIF",
      "eth_to_usd": 1286.65
    },
    {
      "id": 14,
      "address": "0xD3976f93Ac8bFC32568FBFcAEdAfFc3f96E67D5c",
      "name": "Mithical",
      "supply": 998,
      "owners": 478,
      "floor": 2000000000,
      "listed": 1,
      "sales": 3,
      "volume": 2300000000,
      "verified": true,
      "slug": "mithical",
      "volume_change_24h": null,
      "volume_change_7d": null,
      "image_url": "https://fanbase-1.s3.amazonaws.com/quixotic-collection-profile/OOy3JUCq_400x400.jpeg",
      "eth_to_usd": 1286.65
    },
    {
      "id": 675,
      "address": "0xb5E89dc549B070CdD51fc18F1072aE9eC6e7A7C2",
      "name": "6th Anniversary NFT",
      "supply": 236854,
      "owners": 33304,
      "floor": 180000,
      "listed": 1204,
      "sales": 3972,
      "volume": 2199988307,
      "verified": true,
      "slug": null,
      "volume_change_24h": 10.595549738219896,
      "volume_change_7d": -0.2957276410213462,
      "image_url": "https://fanbase-1.s3.amazonaws.com/quixotic-collection-profile/1_98TvpSB_YCIXQ38K8WqRxQ.png",
      "eth_to_usd": 1286.65
    },
    {
      "id": 2106,
      "address": "0x9FD5b98251becfBf66beAd6035Fd5c95AfdB8Bb1",
      "name": "CAPTAIN BLUE BEARD",
      "supply": 1000,
      "owners": 913,
      "floor": 8600000,
      "listed": 38,
      "sales": 364,
      "volume": 2139965900,
      "verified": false,
      "slug": "captain-blue-beard",
      "volume_change_24h": 0.6590909090909091,
      "volume_change_7d": -0.9684829785847973,
      "image_url": "https://fanbase-1.s3.amazonaws.com/quixotic-collection-profile/BLUEBEARD.png",
      "eth_to_usd": 1286.65
    },
    {
      "id": 2248,
      "address": "0xf5c4753A716F8B9f2a817f5c376eF2c29601639C",
      "name": "NovaNauts",
      "supply": 5555,
      "owners": 4505,
      "floor": 3400000,
      "listed": 484,
      "sales": 840,
      "volume": 1843914259,
      "verified": false,
      "slug": "novanaut",
      "volume_change_24h": -0.38366594311366975,
      "volume_change_7d": 1.0475182962565066,
      "image_url": "https://fanbase-1.s3.amazonaws.com/quixotic-collection-profile/vllo_7uSqH1U.GIF",
      "eth_to_usd": 1286.65
    },
    {
      "id": 856,
      "address": "0xFCf6bEf0579D4e6Da537B8154fa3b28102a574ab",
      "name": "Arbi Odyssey Penguins",
      "supply": 1463,
      "owners": 835,
      "floor": 6900000,
      "listed": 46,
      "sales": 298,
      "volume": 1715748322,
      "verified": true,
      "slug": "0xfcf6bef0579d4e6da537b8154fa3b28102a574ab",
      "volume_change_24h": -0.5737304598848926,
      "volume_change_7d": 3.3713701335339477,
      "image_url": "https://fanbase-1.s3.amazonaws.com/quixotic-collection-profile/icon_and_logo.png",
      "eth_to_usd": 1286.65
    },
    {
      "id": 902,
      "address": "0x9b061999f31C58E7cB3D2EEDd7d3c745C347A3d4",
      "name": "Lufroloc Dishes #2",
      "supply": 1001,
      "owners": 487,
      "floor": 5500000,
      "listed": 41,
      "sales": 154,
      "volume": 1634946000,
      "verified": true,
      "slug": "dish2",
      "volume_change_24h": null,
      "volume_change_7d": null,
      "image_url": "https://fanbase-1.s3.amazonaws.com/quixotic-collection-profile/avatar1.jpg",
      "eth_to_usd": 1286.65
    },
    {
      "id": 1059,
      "address": "0x750A7163D06C1cA47c595Ad3FCd0908cC2fDcBb9",
      "name": "ToblinTown",
      "supply": 201,
      "owners": 66,
      "floor": 3000000,
      "listed": 2,
      "sales": 8,
      "volume": 6001000,
      "verified": false,
      "slug": "toblintown",
      "volume_change_24h": null,
      "volume_change_7d": null,
      "image_url": "https://fanbase-1.s3.amazonaws.com/nft_image/0x750A7163D06C1cA47c595Ad3FCd0908cC2fDcBb9/2/1658109975/image.png",
      "eth_to_usd": 1288.4
    }
  ]
}
